…
    ## Warning: 6 parsing failures.
    ##  row                           col           expected                        actual                    file
    ## 1405 Year                          a double           Year                          'road_quality_data.csv'
    ## 1405 International Roughness Index 1/0/T/F/TRUE/FALSE International Roughness Index 'road_quality_data.csv'
    ## 1405 Value                         a double           Value                         'road_quality_data.csv'
    ## 2054 Year                          a double           Year                          'road_quality_data.csv'
    ## 2054 International Roughness Index 1/0/T/F/TRUE/FALSE International Roughness Index 'road_quality_data.csv'
    ## .... ............................. .................. ............................. .......................
    ## See problems(...) for more details.

``` r
road_quality_data
```

    ## # A tibble: 2,756 x 7
    ##     Year Class     System  `International Rough… State  `Pivot Field Na…   Value
    ##    <dbl> <chr>     <chr>   <lgl>                 <chr>  <chr>              <dbl>
    ##  1  2020 Acceptab… Overall NA                    Alaba… Acceptable       2.35e+4
    ##  2  2020 Percent … Overall NA                    Alaba… Percent Accepta… 9.09e-1
    ##  3  2020 Total (m… Overall NA                    Alaba… Total            2.59e+4
    ##  4  2019 Acceptab… Overall NA                    Alaba… Acceptable       2.32e+4
    ##  5  2019 Percent … Overall NA                    Alaba… Percent Accepta… 8.87e-1
    ##  6  2019 Total (m… Overall NA                    Alaba… Total            2.62e+4
    ##  7  2018 Acceptab… Overall NA                    Alaba… Acceptable       2.29e+4
    ##  8  2018 Percent … Overall NA                    Alaba… Percent Accepta… 8.81e-1
    ##  9  2018 Total (m… Overall NA                    Alaba… Total            2.60e+4
    ## 10  2017 Acceptab… Overall NA                    Alaba… Acceptable       2.13e+4
    ## # … with 2,746 more rows
…
## renaming the states

## select the required columns

``` r
wrangled_data_roads <- road_quality_data %>% 
filter(grepl('Percent Acceptable', Class))%>%
rename(International_Roughness_Index = Value) %>%
select(Year,State,International_Roughness_Index ) 


wrangled_data_roads
```

    ## # A tibble: 918 x 3
    ##     Year State   International_Roughness_Index
    ##    <dbl> <chr>                           <dbl>
    ##  1  2020 Alabama                         0.909
    ##  2  2019 Alabama                         0.887
    ##  3  2018 Alabama                         0.881
    ##  4  2017 Alabama                         0.861
    ##  5  2016 Alabama                         0.864
    ##  6  2015 Alabama                         0.976
    ##  7  2014 Alabama                         0.901
    ##  8  2013 Alabama                         0.891
    ##  9  2012 Alabama                         0.922
    ## 10  2011 Alabama                         0.915
    ## # … with 908 more rows

# Using pivot wider to tidy the data

``` r
final_road_data1 <- wrangled_data_roads %>%
pivot_wider(names_from = Year, values_from = International_Roughness_Index)

final_road_data1
```

    ## # A tibble: 51 x 19
    ##    State   `2020` `2019` `2018` `2017` `2016` `2015` `2014` `2013` `2012` `2011`
    ##    <chr>    <dbl>  <dbl>  <dbl>  <dbl>  <dbl>  <dbl>  <dbl>  <dbl>  <dbl>  <dbl>
    ##  1 Alabama 0.909  0.887  0.881  0.861  0.864  0.976  0.901  0.891  0.922  0.915 
    ##  2 Alaska  0.809  0.830  0.769  0.775  0.767  0.789  0.767  0.793  0.790  0.760 
    ##  3 Arizona 0.775  0.791  0.814  0.803  0.858  0.852  0.878  0.921  0.932  0.854 
    ##  4 Arkans… 0.920  0.933  0.797  0.912  0.882  0.793  0.818  0.771  0.800  0.774 
    ##  5 Colora… 0.781  0.778  0.781  0.777  0.763  0.792  0.785  0.765  0.792  0.806 
    ##  6 Califo… 0.670  0.648  0.587  0.550  0.563  0.496  0.630  0.601  0.609  0.608 
    ##  7 Connec… 0.670  0.660  0.649  0.656  0.652  0.435  0.555  0.537  0.478  0.520 
    ##  8 Delawa… 0.837  0.840  0.817  0.816  0.826  0.841  0.810  0.832  0.806  0.798 
    ##  9 Distri… 0.0861 0.0724 0.0676 0.0671 0.0766 0.0463 0.0396 0.0619 0.0374 0.0315
    ## 10 Florida 0.877  0.871  0.882  0.904  0.900  0.905  0.920  0.834  0.928  0.891 
    ## # … with 41 more rows, and 8 more variables: 2010 <dbl>, 2009 <dbl>,
    ## #   2008 <dbl>, 2007 <dbl>, 2006 <dbl>, 2005 <dbl>, 2000 <dbl>, 1995 <dbl>
…
# Deleting unwanted columns using dplyr select

# using mutate to get the sum and average

``` r
ten_year_roadmean <- final_road_data1 %>%
select(-c(12:19)) %>%
mutate("10year_mean" =rowMeans(select(.,`2011`,`2012`,`2013`,`2014`,`2015`,`2016`,`2017`,`2018`,`2019`,`2020`)))

ten_year_roadmean
```

    ## # A tibble: 51 x 12
    ##    State   `2020` `2019` `2018` `2017` `2016` `2015` `2014` `2013` `2012` `2011`
    ##    <chr>    <dbl>  <dbl>  <dbl>  <dbl>  <dbl>  <dbl>  <dbl>  <dbl>  <dbl>  <dbl>
    ##  1 Alabama 0.909  0.887  0.881  0.861  0.864  0.976  0.901  0.891  0.922  0.915 
    ##  2 Alaska  0.809  0.830  0.769  0.775  0.767  0.789  0.767  0.793  0.790  0.760 
    ##  3 Arizona 0.775  0.791  0.814  0.803  0.858  0.852  0.878  0.921  0.932  0.854 
    ##  4 Arkans… 0.920  0.933  0.797  0.912  0.882  0.793  0.818  0.771  0.800  0.774 
    ##  5 Colora… 0.781  0.778  0.781  0.777  0.763  0.792  0.785  0.765  0.792  0.806 
    ##  6 Califo… 0.670  0.648  0.587  0.550  0.563  0.496  0.630  0.601  0.609  0.608 
    ##  7 Connec… 0.670  0.660  0.649  0.656  0.652  0.435  0.555  0.537  0.478  0.520 
    ##  8 Delawa… 0.837  0.840  0.817  0.816  0.826  0.841  0.810  0.832  0.806  0.798 
    ##  9 Distri… 0.0861 0.0724 0.0676 0.0671 0.0766 0.0463 0.0396 0.0619 0.0374 0.0315
    ## 10 Florida 0.877  0.871  0.882  0.904  0.900  0.905  0.920  0.834  0.928  0.891 
    ## # … with 41 more rows, and 1 more variable: 10year_mean <dbl>
…
rankedroad_data_2011to2020 
```

    ## # A tibble: 51 x 23
    ##    State   `2020` `2019` `2018` `2017` `2016` `2015` `2014` `2013` `2012` `2011`
    ##    <chr>    <dbl>  <dbl>  <dbl>  <dbl>  <dbl>  <dbl>  <dbl>  <dbl>  <dbl>  <dbl>
    ##  1 Idaho    0.902  0.964  0.969  0.964  0.953  0.955  0.952  0.949  0.887  0.985
    ##  2 Georgia  0.928  0.929  0.968  0.952  0.965  0.964  0.887  0.867  0.995  0.995
    ##  3 Tennes…  0.946  0.947  0.946  0.953  0.936  0.916  0.941  0.926  0.952  0.953
    ##  4 North …  0.941  0.941  0.934  0.901  0.972  0.904  0.951  0.946  0.964  0.941
    ##  5 Nebras…  0.929  0.889  0.899  0.923  0.918  0.925  0.947  0.952  0.938  0.927
    ##  6 Wyoming  0.943  0.947  0.804  0.920  0.933  0.912  0.918  0.918  0.917  0.939
    ##  7 Kentuc…  0.926  0.901  0.920  0.903  0.899  0.920  0.926  0.910  0.898  0.921
    ##  8 Alabama  0.909  0.887  0.881  0.861  0.864  0.976  0.901  0.891  0.922  0.915
    ##  9 Montana  0.873  0.883  0.880  0.885  0.883  0.899  0.907  0.894  0.927  0.929
    ## 10 Oregon   0.886  0.899  0.898  0.893  0.880  0.883  0.884  0.895  0.896  0.931
    ## # … with 41 more rows, and 12 more variables: 10year_mean <dbl>,
    ## #   2011_ranking <int>, 2012_ranking <int>, 2013_ranking <int>,
    ## #   2014_ranking <int>, 2015_ranking <int>, 2016_ranking <int>,
    ## #   2017_ranking <int>, 2018_ranking <int>, 2019_ranking <int>,
    ## #   2020_ranking <int>, 10year_ranking <int>

# summary of states and their roadranks

``` r
roadrank_summary <- rankedroad_data_2011to2020  %>% 
select(State, c(`2011_ranking`:`10year_ranking`))

roadrank_summary
```

    ## # A tibble: 51 x 12
    ##    State        `2011_ranking` `2012_ranking` `2013_ranking` `2014_ranking`
    ##    <chr>                 <int>          <int>          <int>          <int>
    ##  1 Idaho                     2             19              4              1
    ##  2 Georgia                   1              1             19             14
    ##  3 Tennessee                 3              4              7              4
    ##  4 North Dakota              4              2              6              2
    ##  5 Nebraska                 10              5              3              3
    ##  6 Wyoming                   5             10             10              7
    ##  7 Kentucky                 11             14             12              5
    ##  8 Alabama                  13              9             17             12
    ##  9 Montana                   9              8             14             10
    ## 10 Oregon                    8             16             13             15
    ## # … with 41 more rows, and 7 more variables: 2015_ranking <int>,
    ## #   2016_ranking <int>, 2017_ranking <int>, 2018_ranking <int>,
    ## #   2019_ranking <int>, 2020_ranking <int>, 10year_ranking <int>
…
    ## 
    ## ── Column specification ────────────────────────────────────────────────────────
    ## cols(
    ##   state = col_character(),
    ##   date = col_date(format = ""),
    ##   value = col_double()
    ## )

``` r
electricity_price_state
```

    ## # A tibble: 1,061 x 3
    ##    state   date       value
    ##    <chr>   <date>     <dbl>
    ##  1 Alabama 2001-01-01  7.01
    ##  2 Alabama 2002-01-01  7.12
    ##  3 Alabama 2003-01-01  7.39
    ##  4 Alabama 2004-01-01  7.62
    ##  5 Alabama 2005-01-01  8   
    ##  6 Alabama 2006-01-01  8.75
    ##  7 Alabama 2007-01-01  9.32
    ##  8 Alabama 2008-01-01 10.4 
    ##  9 Alabama 2009-01-01 10.7 
    ## 10 Alabama 2010-01-01 10.7 
    ## # … with 1,051 more rows
…
# splitting the date column into year, month, date

``` r
electricity_price <- electricity_price_state %>%
separate(date, into = c("year", "month","date"), sep = "-")%>%
select(-c(3:4)) %>%
pivot_wider(names_from = year, values_from = value )


   
electricity_price
```

    ## # A tibble: 51 x 22
    ##    state   `2001` `2002` `2003` `2004` `2005` `2006` `2007` `2008` `2009` `2010`
    ##    <chr>    <dbl>  <dbl>  <dbl>  <dbl>  <dbl>  <dbl>  <dbl>  <dbl>  <dbl>  <dbl>
    ##  1 Alabama   7.01   7.12   7.39   7.62   8      8.75   9.32  10.4   10.7   10.7 
    ##  2 Alaska   NA     NA     NA     NA     NA     NA     NA     NA     NA     NA   
    ##  3 Arizona   8.3    8.27   8.35   8.46   8.86   9.4    9.66  10.3   10.7   11.0 
    ##  4 Arkans…   7.72   7.25   7.24   7.36   8      8.85   8.73   9.27   9.14   8.86
    ##  5 Califo…  12.1   12.6   12.2   12.2   12.5   14.3   14.4   13.8   14.7   14.8 
    ##  6 Colora…   7.47   7.37   8.14   8.42   9.06   9.02   9.25  10.1   10     11.0 
    ##  7 Connec…  10.9   11.0   11.3   11.6   13.6   16.9   19.1   19.5   20.3   19.2 
    ##  8 Delawa…   8.61   8.7    8.59   8.78   9.01  11.8   13.2   13.9   14.1   13.8 
    ##  9 Distri…   7.79   7.98   7.84   8      9.1    9.88  11.2   12.8   13.7   14.0 
    ## 10 Florida   8.59   8.16   8.55   8.99   9.62  11.3   11.2   11.6   12.4   11.4 
    ## # … with 41 more rows, and 11 more variables: 2011 <dbl>, 2012 <dbl>,
    ## #   2013 <dbl>, 2014 <dbl>, 2015 <dbl>, 2016 <dbl>, 2017 <dbl>, 2018 <dbl>,
    ## #   2019 <dbl>, 2020 <dbl>, 2021 <dbl>

# deleting unwanted rows

``` r
final_electricity_price1 <- electricity_price %>%
select(-c(2:11, 22)) 

final_electricity_price1
```

    ## # A tibble: 51 x 11
    ##    state   `2011` `2012` `2013` `2014` `2015` `2016` `2017` `2018` `2019` `2020`
    ##    <chr>    <dbl>  <dbl>  <dbl>  <dbl>  <dbl>  <dbl>  <dbl>  <dbl>  <dbl>  <dbl>
    ##  1 Alabama  11.1    11.4  11.3   11.5   11.7   12.0    12.6  12.2    12.5   12.6
    ##  2 Alaska   17.6    17.9  18.1   19.1   19.8   20.3    21.3  21.9    22.9   22.6
    ##  3 Arizona  11.1    11.3  11.7   11.9   12.1   12.2    12.4  12.8    12.4   12.3
    ##  4 Arkans…   9.02    9.3   9.59   9.51   9.82   9.92   10.3   9.81    9.8   10.4
    ##  5 Califo…  14.8    15.3  16.2   16.2   17.0   17.4    18.3  18.8    19.2   20.4
    ##  6 Colora…  11.3    11.5  11.9   12.2   12.1   12.1    12.2  12.2    12.2   12.4
    ##  7 Connec…  18.1    17.3  17.6   19.8   20.9   20.0    20.3  21.2    21.9   22.7
    ##  8 Delawa…  13.7    13.6  13.0   13.3   13.4   13.4    13.4  12.5    12.6   12.6
    ##  9 Distri…  13.4    12.3  12.6   12.7   13.0   12.3    12.9  12.8    13.0   12.6
    ## 10 Florida  11.5    11.4  11.3   11.9   11.6   11.0    11.6  11.5    11.7   11.3
    ## # … with 41 more rows

``` r
elec_tenyear_mean <- final_electricity_price1 %>%
mutate("10year_mean" =rowMeans(select(.,`2011`,`2012`,`2013`,`2014`,`2015`,`2016`,`2017`,`2018`,`2019`,`2020`)))

elec_tenyear_mean
```

    ## # A tibble: 51 x 12
    ##    state   `2011` `2012` `2013` `2014` `2015` `2016` `2017` `2018` `2019` `2020`
    ##    <chr>    <dbl>  <dbl>  <dbl>  <dbl>  <dbl>  <dbl>  <dbl>  <dbl>  <dbl>  <dbl>
    ##  1 Alabama  11.1    11.4  11.3   11.5   11.7   12.0    12.6  12.2    12.5   12.6
    ##  2 Alaska   17.6    17.9  18.1   19.1   19.8   20.3    21.3  21.9    22.9   22.6
    ##  3 Arizona  11.1    11.3  11.7   11.9   12.1   12.2    12.4  12.8    12.4   12.3
    ##  4 Arkans…   9.02    9.3   9.59   9.51   9.82   9.92   10.3   9.81    9.8   10.4
    ##  5 Califo…  14.8    15.3  16.2   16.2   17.0   17.4    18.3  18.8    19.2   20.4
    ##  6 Colora…  11.3    11.5  11.9   12.2   12.1   12.1    12.2  12.2    12.2   12.4
    ##  7 Connec…  18.1    17.3  17.6   19.8   20.9   20.0    20.3  21.2    21.9   22.7
    ##  8 Delawa…  13.7    13.6  13.0   13.3   13.4   13.4    13.4  12.5    12.6   12.6
    ##  9 Distri…  13.4    12.3  12.6   12.7   13.0   12.3    12.9  12.8    13.0   12.6
    ## 10 Florida  11.5    11.4  11.3   11.9   11.6   11.0    11.6  11.5    11.7   11.3
    ## # … with 41 more rows, and 1 more variable: 10year_mean <dbl>
…
elec_meandata_2011to2020
```

    ## # A tibble: 51 x 23
    ##    state   `2011` `2012` `2013` `2014` `2015` `2016` `2017` `2018` `2019` `2020`
    ##    <chr>    <dbl>  <dbl>  <dbl>  <dbl>  <dbl>  <dbl>  <dbl>  <dbl>  <dbl>  <dbl>
    ##  1 Washin…   8.28   8.53   8.7    8.67   9.09   9.48   9.66   9.75   9.71   9.87
    ##  2 Louisi…   8.96   8.37   9.43   9.57   9.33   9.34   9.74   9.59   9.8    9.67
    ##  3 Idaho     7.87   8.67   9.32   9.72   9.93   9.95  10.0   10.2    9.89   9.95
    ##  4 North …   8.58   9.06   9.12   9.15   9.62  10.2   10.3   10.2   10.3   10.4 
    ##  5 Arkans…   9.02   9.3    9.59   9.51   9.82   9.92  10.3    9.81   9.8   10.4 
    ##  6 Oklaho…   9.47   9.51   9.67  10.0   10.1   10.2   10.6   10.3   10.2   10.1 
    ##  7 Kentuc…   9.2    9.43   9.79  10.2   10.2   10.5   10.8   10.6   10.8   10.9 
    ##  8 Utah      8.96   9.93  10.4   10.6   10.9   11.0   11.0   10.4   10.4   10.4 
    ##  9 Tennes…   9.98  10.1    9.98  10.3   10.3   10.4   10.7   10.7   10.9   10.8 
    ## 10 Nebras…   9.32  10.0   10.3   10.4   10.6   10.8   11.0   10.7   10.8   10.8 
    ## # … with 41 more rows, and 12 more variables: 10year_mean <dbl>,
    ## #   2011_ranking <int>, 2012_ranking <int>, 2013_ranking <int>,
    ## #   2014_ranking <int>, 2015_ranking <int>, 2016_ranking <int>,
    ## #   2017_ranking <int>, 2018_ranking <int>, 2019_ranking <int>,
    ## #   2020_ranking <int>, 10year_ranking <int>

# summary of state and electricity price rankings 2011-2020

``` r
elecprice_rank <- elec_meandata_2011to2020 %>% 
select(state, c(`2011_ranking`:`10year_ranking`))

elecprice_rank
```

    ## # A tibble: 51 x 12
    ##    state        `2011_ranking` `2012_ranking` `2013_ranking` `2014_ranking`
    ##    <chr>                 <int>          <int>          <int>          <int>
    ##  1 Washington                2              2              1              1
    ##  2 Louisiana                 4              1              4              5
    ##  3 Idaho                     1              3              3              6
    ##  4 North Dakota              3              4              2              2
    ##  5 Arkansas                  6              5              6              4
    ##  6 Oklahoma                 12              7              7              7
    ##  7 Kentucky                  8              6              8              8
    ##  8 Utah                      4             11             15             16
    ##  9 Tennessee                16             15             10             10
    ## 10 Nebraska                  9             12             13             11
    ## # … with 41 more rows, and 7 more variables: 2015_ranking <int>,
    ## #   2016_ranking <int>, 2017_ranking <int>, 2018_ranking <int>,
    ## #   2019_ranking <int>, 2020_ranking <int>, 10year_ranking <int>
…
``` r
Corrections_data
```

    ## # A tibble: 742 x 44
    ##    `Bureau of Justi… X2    X3    X4    X5    X6    X7    X8    X9    X10   X11  
    ##    <chr>             <lgl> <chr> <chr> <chr> <chr> <chr> <chr> <chr> <chr> <chr>
    ##  1 Tool Title: Corr… NA    <NA>  <NA>  <NA>  <NA>  <NA>  <NA>  <NA>  <NA>  <NA> 
    ##  2 Data source: Nat… NA    <NA>  <NA>  <NA>  <NA>  <NA>  <NA>  <NA>  <NA>  <NA> 
    ##  3 Refer questions … NA    <NA>  <NA>  <NA>  <NA>  <NA>  <NA>  <NA>  <NA>  <NA> 
    ##  4 <NA>              NA    <NA>  <NA>  <NA>  <NA>  <NA>  <NA>  <NA>  <NA>  <NA> 
    ##  5 <NA>              NA    <NA>  <NA>  <NA>  <NA>  <NA>  <NA>  <NA>  <NA>  <NA> 
    ##  6 Count of total j… NA    <NA>  <NA>  <NA>  <NA>  <NA>  <NA>  <NA>  <NA>  <NA> 
    ##  7 <NA>              NA    <NA>  <NA>  <NA>  <NA>  <NA>  <NA>  <NA>  <NA>  <NA> 
    ##  8 Jurisdiction      NA    1978… 1979… 1980… 1981… 1982… 1983… 1984… 1985… 1986…
    ##  9 National Statist… NA    3072… 3144… 3298… 3699… 4138… 4368… 4620… 5025… 5449…
    ## 10 Federal Institut… NA    29803 26371 24363 28133 29673 31926 34263 40223 44408
    ## # … with 732 more rows, and 33 more variables: X12 <chr>, X13 <chr>, X14 <chr>,
    ## #   X15 <chr>, X16 <chr>, X17 <dbl>, X18 <dbl>, X19 <dbl>, X20 <dbl>,
    ## #   X21 <dbl>, X22 <dbl>, X23 <dbl>, X24 <dbl>, X25 <dbl>, X26 <dbl>,
    ## #   X27 <dbl>, X28 <dbl>, X29 <dbl>, X30 <dbl>, X31 <dbl>, X32 <dbl>,
    ## #   X33 <dbl>, X34 <dbl>, X35 <dbl>, X36 <dbl>, X37 <dbl>, X38 <dbl>,
    ## #   X39 <dbl>, X40 <dbl>, X41 <dbl>, X42 <dbl>, X43 <dbl>, X44 <dbl>

``` r
data_correction <- Corrections_data %>%
slice(-c(1:7)) 


data_correction
```

    ## # A tibble: 735 x 44
    ##    `Bureau of Justi… X2    X3    X4    X5    X6    X7    X8    X9    X10   X11  
    ##    <chr>             <lgl> <chr> <chr> <chr> <chr> <chr> <chr> <chr> <chr> <chr>
    ##  1 Jurisdiction      NA    1978… 1979… 1980… 1981… 1982… 1983… 1984… 1985… 1986…
    ##  2 National Statist… NA    3072… 3144… 3298… 3699… 4138… 4368… 4620… 5025… 5449…
    ##  3 Federal Institut… NA    29803 26371 24363 28133 29673 31926 34263 40223 44408
    ##  4 State Institutio… NA    2774… 2880… 3054… 3417… 3841… 4049… 4277… 4622… 5005…
    ##  5 Alabama/33/34/35… NA    5625  5464  6543  7657  9233  9856  10482 11015 11710
    ##  6 Alaska/38/39/40/… NA    712   760   822   1024  1322  1631  1967  2329  2460 
    ##  7 Arizona/60/61/62… NA    3456  3749  4372  5223  6069  6889  7845  8531  9434 
    ##  8 Arkansas/82/83/8… NA    2654  3042  2911  3328  3922  4246  4482  4611  4701 
    ##  9 California/66/91… NA    21325 22632 24569 29202 34640 39373 43197 50158 59484
    ## 10 Colorado/100/101… NA    2486  2668  2629  2772  3042  3244  3231  3386  3804 
    ## # … with 725 more rows, and 33 more variables: X12 <chr>, X13 <chr>, X14 <chr>,
    ## #   X15 <chr>, X16 <chr>, X17 <dbl>, X18 <dbl>, X19 <dbl>, X20 <dbl>,
    ## #   X21 <dbl>, X22 <dbl>, X23 <dbl>, X24 <dbl>, X25 <dbl>, X26 <dbl>,
    ## #   X27 <dbl>, X28 <dbl>, X29 <dbl>, X30 <dbl>, X31 <dbl>, X32 <dbl>,
    ## #   X33 <dbl>, X34 <dbl>, X35 <dbl>, X36 <dbl>, X37 <dbl>, X38 <dbl>,
    ## #   X39 <dbl>, X40 <dbl>, X41 <dbl>, X42 <dbl>, X43 <dbl>, X44 <dbl>
…
